name,bytes
"Empty String",""
"Invalid UTF8","ff"
"Multiple Null Characters (sometimes seen as EOF)","00 00 00 00"
"Multiple Null Characters with data","00 00 00 00 22 23"
"UTF-16 BE","00 48 00 65 00 22"
"UTF-16 LE","48 00 65 00 22 00"
"UTF-32 BE","00 00 00 48 00 00 00 65 00 00 00 22"
"UTF-32 LE","48 00 00 00 65 00 00 00 22 00 00 00"
"Long Text","54 68 69 73 20 69 73 20 61 20 72 65 61 6C 6C 79 20 6C 6F 6E 67 20 6E 61 6D 65 2C 20 6C 65 74 27 73 20 73 65 65 20 68 6F 77 20 6C 6F 6E 67 20 77 65 20 63 61 6E 20 6D 61 6B 65 20 69 74 2E 20 57 68 61 74 20 61 20 63 6C 61 73 73 69 63 20 6A 6F 6B 65 2C 20 6D 61 6B 69 6E 67 20 74 65 78 74 20 73 6F 20 6C 6F 6E 67 20 74 68 61 74 20 79 6F 75 20 68 61 76 65 20 74 6F 20 73 63 72 6F 6C 6C 20 74 6F 20 73 65 65 20 68 6F 77 20 66 61 72 20 69 74 20 67 6F 65 73 2E 20 4D 61 79 62 65 20 69 74 20 67 6F 65 73 20 72 65 61 6C 6C 79 20 66 61 72 2C 20 6D 61 79 62 65 20 69 74 20 64 6F 65 73 6E 27 74 2E 20 4D 61 79 62 65 20 69 74 20 65 6E 64 73 2C 20 69 74 20 70 72 6F 62 61 62 6C 79 20 64 6F 65 73 20 74 68 6F 75 67 68 20 77 68 6F 20 6B 6E 6F 77 73 20 68 6F 77 20 66 61 72 20 79 6F 75 27 6C 6C 20 68 61 76 65 20 74 6F 20 67 6F 20 74 6F 20 72 65 61 63 68 20 74 68 65 20 65 6E 64 2E 20 4D 61 79 62 65 20 69 74 20 6E 65 76 65 72 20 65 6E 64 73 2C 20 74 68 6F 75 67 68 20 74 68 61 74 20 77 6F 75 6C 64 20 62 65 20 69 6D 70 72 65 73 73 69 76 65 20 73 69 6E 63 65 20 69 74 20 6D 65 61 6E 73 20 79 6F 75 20 77 6F 75 6C 64 20 68 61 76 65 20 69 6E 66 69 6E 69 74 65 20 64 69 73 6B 20 73 70 61 63 65 20 61 6E 64 20 69 6E 66 69 6E 69 74 65 20 6D 65 6D 6F 72 79 2E 20 49 66 20 79 6F 75 20 64 6F 20 68 61 76 65 20 69 6E 66 69 6E 69 74 65 20 64 69 73 6B 20 73 70 61 63 65 20 61 6E 64 20 69 6E 66 69 6E 69 74 65 20 6D 65 6D 6F 72 79 2C 20 64 6F 20 79 6F 75 20 74 68 69 6E 6B 20 79 6F 75 20 63 6F 75 6C 64 20 6C 6F 61 6E 20 6D 65 20 73 6F 6D 65 3F 20 4D 61 79 62 65 20 79 6F 75 20 63 6F 75 6C 64 20 6C 6F 61 6E 20 6D 65 20 65 76 65 72 79 20 6F 74 68 65 72 20 62 79 74 65 2C 20 74 68 61 74 20 77 61 79 20 79 6F 75 20 73 74 69 6C 6C 20 68 61 76 65 20 69 6E 66 69 6E 69 74 65 20 6D 65 6D 6F 72 79 20 61 6E 64 20 69 6E 66 69 6E 69 74 65 20 64 69 73 6B 20 73 70 61 63 65 20 61 6E 64 20 49 20 63 61 6E 20 68 61 76 65 20 69 6E 66 69 6E 69 74 65 20 6D 65 6D 6F 72 79 20 61 6E 64 20 69 6E 66 69 6E 69 74 65 20 64 69 73 6B 20 73 70 61 63 65 20 74 6F 6F 2E 20 57 65 20 6D 61 6B 65 20 74 68 69 73 20 73 75 70 65 72 20 6C 6F 6E 67 20 73 6F 20 79 6F 75 20 64 6F 6E 27 74 20 68 61 76 65 20 74 6F 2C 20 74 68 6F 75 67 68 20 74 68 69 73 20 6D 61 79 20 6E 6F 74 20 62 65 20 6C 6F 6E 67 20 65 6E 6F 75 67 68 2E 20 49 74 20 6D 61 79 20 6E 65 76 65 72 20 62 65 20 6C 6F 6E 67 20 65 6E 6F 75 67 68 2E 20 4F 68 20 77 65 6C 6C 2E 20 49 20 67 75 65 73 73 20 79 6F 75 20 63 61 6E 20 61 6C 77 61 79 73 20 6D 61 6B 65 20 61 20 70 69 65 63 65 20 6F 66 20 74 65 78 74 20 74 68 61 74 27 73 20 6C 6F 6E 67 65 72 20 74 68 61 6E 20 74 68 69 73 20 6F 6E 65 2E"